<svg width="20" height="20" viewBox="0 0 20 20" fill="none" xmlns="http://www.w3.org/2000/svg">
<path fill-rule="evenodd" clip-rule="evenodd" d="M10 8.2323L2.0451 0.277344L0.277328 2.04511L8.23228 10.0001L0.277328 17.955L2.0451 19.7228L10 11.7678L17.955 19.7228L19.7228 17.955L11.7678 10.0001L19.7228 2.04511L17.955 0.277346L10 8.2323Z" fill="black"/>
</svg>
