<svg width="15" height="15" viewBox="0 0 15 15" fill="none" xmlns="http://www.w3.org/2000/svg">
<path d="M14.7048 1.52009L13.7748 0.590088L7.64734 6.71759L1.54984 0.620088L0.619844 1.55009L6.71734 7.64759L0.589844 13.7751L1.51984 14.7051L7.64734 8.57759L13.7748 14.7051L14.7048 13.7751L8.57734 7.64759L14.7048 1.52009Z" fill="#000"/>
</svg>
