<svg width="40" height="40" viewBox="0 0 40 40" fill="none" xmlns="http://www.w3.org/2000/svg">
<path fill-rule="evenodd" clip-rule="evenodd" d="M18.7878 22.3906C18.5541 23.1127 18.423 23.8639 18.3985 24.6224L21.7073 24.5705C21.7248 24.3149 21.7727 24.0623 21.85 23.8179C22.0696 23.1593 22.4863 22.584 23.0437 22.1701L24.0688 21.3786C24.83 20.8266 25.515 20.1765 26.1059 19.4452C26.7128 18.5709 27.0222 17.5246 26.9883 16.4609C27.0465 15.6173 26.8903 14.7727 26.5341 14.0059C26.1778 13.239 25.6333 12.5748 24.9511 12.0751C23.4237 11.0373 21.6066 10.5103 19.7609 10.57C18.3424 10.5216 16.9403 10.8867 15.7256 11.621C14.8711 12.2144 14.1757 13.0088 13.7005 13.9343C13.2254 14.8597 12.9851 15.8878 13.0007 16.928H16.6079C16.5888 16.4896 16.6622 16.0522 16.8233 15.6441C16.9843 15.2359 17.2295 14.8663 17.5428 14.5591C17.856 14.2519 18.2305 14.0141 18.6417 13.8611C19.0529 13.7081 19.4917 13.6434 19.9296 13.6711C20.349 13.6176 20.775 13.6565 21.1776 13.7853C21.5803 13.9141 21.9499 14.1295 22.2604 14.4165C22.5708 14.7034 22.8146 15.0549 22.9746 15.4462C23.1346 15.8375 23.2069 16.2592 23.1865 16.6814C23.1813 17.3664 22.9637 18.0328 22.5636 18.5888C22.3128 18.9351 22.011 19.2413 21.6683 19.4971L20.6173 20.3146C19.8428 20.842 19.2136 21.556 18.7878 22.3906ZM18.7481 31.056C19.1254 31.3053 19.5682 31.4371 20.0204 31.4345C20.6238 31.4311 21.2013 31.189 21.6268 30.7611C22.0523 30.3332 22.2911 29.7543 22.2911 29.1508C22.2911 28.6986 22.1568 28.2566 21.9053 27.8808C21.6538 27.5049 21.2964 27.2122 20.8783 27.0398C20.4603 26.8673 20.0004 26.8229 19.5571 26.912C19.1137 27.0012 18.7069 27.22 18.388 27.5407C18.0691 27.8614 17.8527 28.2695 17.766 28.7133C17.6794 29.1572 17.7265 29.6167 17.9013 30.0338C18.0761 30.4509 18.3709 30.8066 18.7481 31.056Z" fill="#231F20" fill-opacity="0.5"/>
</svg>
